{
  "ingresses": {
    "ingresses": [
      {
        "name": "consul-dashboard-proxy",
        "host": "https://consul.v22017115084655013.supersrv.de"
      },
      {
        "name": "dashboard-staging",
        "host": "https://staging.dashboard.v22017115084655013.supersrv.de"
      },
      {
        "name": "k8s-dashboard-proxy",
        "host": "https://api.k8s.v22017115084655013.supersrv.de"
      },
      {
        "name": "keycloak",
        "host": "https://keycloak.v22017115084655013.supersrv.de"
      },
      {
        "name": "k8s-dashboard-proxy",
        "host": "https://k8s.v22017115084655013.supersrv.de"
      },
      {
        "name": "alertmanager-dashboard-proxy",
        "host": "https://alertmanager.v22017115084655013.supersrv.de"
      },
      {
        "name": "grafana-ingress",
        "host": "https://grafana.v22017115084655013.supersrv.de"
      },
      {
        "name": "prometheus-dashboard-proxy",
        "host": "https://prometheus.v22017115084655013.supersrv.de"
      },
      {
        "name": "traefik-dashboard-proxy",
        "host": "https://traefik.v22017115084655013.supersrv.de"
      }
    ]
  }
}
